15 57
67 3
26 47
26 71
3 5
80 61
63 57
48 73
1 82
98 59
25 4
30 29
23 59
91 43
71 98
35 59
80 95
96 60
1 46
75 25
94 11
5 76
87 90
99 64
92 92
49 26
38 78
71 65
95 35
69 7
15 79
28 70
88 26
71 3
48 34
36 28
86 60
73 52
49 36
29 75
73 96
36 50
98 65
34 54
48 52
85 86
19 41
83 79
40 34
18 28
55 30
17 28
19 6
96 28
15 76
69 76
4 92
31 83
23 78
52 70
33 29
50 25
36 6
10 37
49 35
60 41
76 41
74 26
55 35
85 47
21 72
4 99
61 18
7 86
4 16
8 48
23 23
72 71
89 78
63 56
61 81
17 58
41 58
15 88
78 72
47 67
76 76
58 37
49 39
29 31
8 60
27 82
13 24
56 86
72 52
45 6
38 59
6 5
48 54
86 37
94 73
85 52
59 20
